pract6/simulation/qsim/pract6.msim.vcd
$comment
	File created using the following command:
		vcd file pract6.msim.vcd -direction
$end
$date
	Mon Oct 07 20:26:47 2024
$end
$version
	ModelSim Version 10.1d
$end
$timescale
	1ps
$end
$scope module pract6_vlg_vec_tst $end
$var reg 1 ! a $end
$var reg 1 " b $end
$var reg 1 # clock $end
$var wire 1 $ q [3] $end
$var wire 1 % q [2] $end
$var wire 1 & q [1] $end
$var wire 1 ' q [0] $end
$var wire 1 ( sampler $end
$scope module i1 $end
$var wire 1 ) gnd $end
$var wire 1 * vcc $end
$var wire 1 + unknown $end
$var tri1 1 , devclrn $end
$var tri1 1 - devpor $end
$var tri1 1 . devoe $end
$var wire 1 / q[3]~output_o $end
$var wire 1 0 q[2]~output_o $end
$var wire 1 1 q[1]~output_o $end
$var wire 1 2 q[0]~output_o $end
$var wire 1 3 clock~input_o $end
$var wire 1 4 clock~inputclkctrl_outclk $end
$var wire 1 5 inst53312~2_combout $end
$var wire 1 6 b~input_o $end
$var wire 1 7 a~input_o $end
$var wire 1 8 inst~1_combout $end
$var wire 1 9 inst~2_combout $end
$var wire 1 : inst2232~8_combout $end
$var wire 1 ; inst53312~3_combout $end
$var wire 1 < inst1232~q $end
$var wire 1 = inst~0_combout $end
$var wire 1 > inst2234~3_combout $end
$var wire 1 ? inst2234~2_combout $end
$var wire 1 @ inst2234~4_combout $end
$var wire 1 A inst01~q $end
$var wire 1 B inst2233~4_combout $end
$var wire 1 C inst2233~5_combout $end
$var wire 1 D inst321~q $end
$var wire 1 E inst2234~5_combout $end
$var wire 1 F inst2232~10_combout $end
$var wire 1 G inst2232~9_combout $end
$var wire 1 H inst353~q $end
$upscope $end
$upscope $end
$enddefinitions $end
#0
$dumpvars
0!
0"
0#
0'
0&
0%
0$
x(
0)
1*
x+
1,
1-
1.
0/
00
01
02
03
04
05
06
07
08
19
0:
1;
0<
0=
1>
0?
0@
0A
1B
1C
0D
1E
0F
1G
0H
$end
#10000
1#
13
14
0(
1H
1D
1<
1F
0C
09
1/
11
10
1$
1&
1%
1:
0;
#20000
0#
03
04
1(
#30000
1#
13
14
0(
0D
0<
0F
1C
0>
15
01
00
0&
0%
0G
1@
1;
#40000
0#
03
04
1(
#50000
1#
13
14
0(
0H
1D
1A
1<
1>
0B
0/
11
12
10
0$
1&
1'
1%
0@
0C
#60000
0#
03
04
1(
#70000
1#
13
14
0(
0D
0A
1C
05
01
02
0&
0'
0;
#80000
0#
03
04
1(
#90000
1#
13
14
0(
1D
0<
0E
0C
15
11
00
1&
0%
1G
1@
1;
#100000
0#
03
04
1(
#110000
1#
13
14
0(
1H
0D
1A
1<
1F
1E
1B
0;
1/
01
12
10
1$
0&
1'
1%
0@
1C
#120000
0#
03
04
1(
#130000
1#
13
14
0(
1D
0A
0<
0F
0E
0C
0B
1;
11
02
00
1&
0'
0%
1@
1C
#140000
0#
03
04
1(
#150000
1#
13
14
0(
1A
1<
1E
0C
0>
12
10
1'
1%
0G
#160000
0#
03
04
1(
#170000
1#
13
14
0(
0H
0D
1>
1B
0;
0/
01
0$
0&
0@
#180000
0#
03
04
1(
#190000
1#
13
14
0(
0A
0<
1C
1;
19
05
02
00
0'
0%
0:
0;
1G
1;
#200000
1"
0#
16
03
04
1(
#210000
1#
13
14
0(
1H
1D
1<
1F
0C
09
1/
11
10
1$
1&
1%
1:
0;
#220000
0#
03
04
1(
#230000
1#
13
14
0(
0D
0<
0F
1C
0>
15
01
00
0&
0%
0G
1@
1;
#240000
0#
03
04
1(
#250000
1#
13
14
0(
0H
1D
1A
1<
1>
0/
11
12
10
0$
1&
1'
1%
0@
#260000
0#
03
04
1(
#270000
1#
13
14
0(
0A
05
02
0'
0;
#280000
0#
03
04
1(
#290000
1#
13
14
0(
0<
0E
0B
15
00
0%
1G
1@
0C
1;
#300000
0#
03
04
1(
#310000
1#
13
14
0(
1H
0D
1A
1<
1F
1E
1B
0;
1/
01
12
10
1$
0&
1'
1%
0@
1C
#320000
0#
03
04
1(
#330000
1#
13
14
0(
1D
0A
0<
0F
0E
0C
0B
1;
11
02
00
1&
0'
0%
1@
1C
#340000
0#
03
04
1(
#350000
1#
13
14
0(
1A
1<
1E
0C
1B
0>
12
10
1'
1%
0G
#360000
0#
03
04
1(
#370000
1#
13
14
0(
0H
0D
1>
0;
0/
01
0$
0&
0@
#380000
0#
03
04
1(
#390000
1#
13
14
0(
0A
0<
1C
1;
19
05
02
00
0'
0%
0:
0;
1G
1;
#400000
1!
0"
0#
17
06
03
04
1(
1?
1:
1@
0G
0;
#410000
1#
13
14
0(
1D
1A
0E
09
11
12
1&
1'
1G
0?
#420000
0#
03
04
1(
#430000
1#
13
14
0(
1H
1E
0C
18
1/
1$
0G
0@
0:
1G
1;
#440000
0#
03
04
1(
#450000
1#
13
14
0(
0D
0A
1<
0E
1C
0B
08
01
02
10
0&
0'
1%
1@
0C
1:
0;
#460000
0#
03
04
1(
#470000
1#
13
14
0(
1A
0<
1E
1B
15
12
00
1'
0%
0G
0@
1C
#480000
0#
03
04
1(
#490000
1#
13
14
0(
0H
1D
0A
0E
0B
1;
0/
11
02
0$
1&
0'
1G
1@
0C
#500000
0#
03
04
1(
#510000
1#
13
14
0(
1H
0D
1A
1<
1F
1E
1B
0;
1/
01
12
10
1$
0&
1'
1%
0@
1C
#520000
0#
03
04
1(
#530000
1#
13
14
0(
1D
0A
0<
0F
0E
0C
0B
1;
11
02
00
1&
0'
0%
1@
1C
#540000
0#
03
04
1(
#550000
1#
13
14
0(
1A
1<
1E
0C
0>
12
10
1'
1%
0G
#560000
0#
03
04
1(
#570000
1#
13
14
0(
0H
0D
1>
1B
0;
0/
01
0$
0&
0@
#580000
0#
03
04
1(
#590000
1#
13
14
0(
0A
0<
1C
1;
19
05
02
00
0'
0%
1?
0;
1@
#600000
1"
0#
16
03
04
1(
#610000
1#
13
14
0(
1D
1A
0E
09
11
12
1&
1'
1G
0?
#620000
0#
03
04
1(
#630000
1#
13
14
0(
1H
1E
0C
18
1/
1$
0G
0@
1?
1@
#640000
0#
03
04
1(
#650000
1#
13
14
0(
0H
0D
1=
08
15
0/
01
0$
0&
1G
0?
#660000
0#
03
04
1(
#670000
1#
13
14
0(
1H
1C
0=
1/
1$
0G
0@
#680000
0#
03
04
1(
#690000
1#
13
14
0(
0H
1D
0A
0E
0B
1;
0/
11
02
0$
1&
0'
1G
1@
0C
#700000
0#
03
04
1(
#710000
1#
13
14
0(
1H
0D
1A
1<
1F
1E
1B
0;
1/
01
12
10
1$
0&
1'
1%
0@
1C
#720000
0#
03
04
1(
#730000
1#
13
14
0(
1D
0A
0<
0F
0E
0C
0B
1;
11
02
00
1&
0'
0%
1@
1C
#740000
0#
03
04
1(
#750000
1#
13
14
0(
1A
1<
1E
0C
1B
0>
12
10
1'
1%
0G
#760000
0#
03
04
1(
#770000
1#
13
14
0(
0H
0D
1>
0;
0/
01
0$
0&
0@
#780000
0#
03
04
1(
#790000
1#
13
14
0(
0A
0<
1C
1;
19
05
02
00
0'
0%
1?
0;
1@
#800000
0!
0"
0#
07
06
03
04
1(
0?
0:
0@
1G
1;
#810000
1#
13
14
0(
1H
1D
1<
1F
0C
09
1/
11
10
1$
1&
1%
1:
0;
#820000
0#
03
04
1(
#830000
1#
13
14
0(
0D
0<
0F
1C
0>
15
01
00
0&
0%
0G
1@
1;
#840000
0#
03
04
1(
#850000
1#
13
14
0(
0H
1D
1A
1<
1>
0B
0/
11
12
10
0$
1&
1'
1%
0@
0C
#860000
0#
03
04
1(
#870000
1#
13
14
0(
0D
0A
1C
05
01
02
0&
0'
0;
#880000
0#
03
04
1(
#890000
1#
13
14
0(
1D
0<
0E
0C
15
11
00
1&
0%
1G
1@
1;
#900000
0#
03
04
1(
#910000
1#
13
14
0(
1H
0D
1A
1<
1F
1E
1B
0;
1/
01
12
10
1$
0&
1'
1%
0@
1C
#920000
0#
03
04
1(
#930000
1#
13
14
0(
1D
0A
0<
0F
0E
0C
0B
1;
11
02
00
1&
0'
0%
1@
1C
#940000
0#
03
04
1(
#950000
1#
13
14
0(
1A
1<
1E
0C
0>
12
10
1'
1%
0G
#960000
0#
03
04
1(
#970000
1#
13
14
0(
0H
0D
1>
1B
0;
0/
01
0$
0&
0@
#980000
0#
03
04
1(
#990000
1#
13
14
0(
0A
0<
1C
1;
19
05
02
00
0'
0%
0:
0;
1G
1;
