pract5/simulation/qsim/pract5.msim.vcd
$comment
	File created using the following command:
		vcd file pract5.msim.vcd -direction
$end
$date
	Mon Oct 07 16:47:55 2024
$end
$version
	ModelSim Version 10.1d
$end
$timescale
	1ps
$end
$scope module pract5_vlg_vec_tst $end
$var reg 1 ! E $end
$var reg 3 " X [2:0] $end
$var wire 1 # Y0 $end
$var wire 1 $ Y1 $end
$var wire 1 % Y2 $end
$var wire 1 & Y3 $end
$var wire 1 ' Y4 $end
$var wire 1 ( Y5 $end
$var wire 1 ) Y6 $end
$var wire 1 * Y7 $end
$var wire 1 + sampler $end
$scope module i1 $end
$var wire 1 , gnd $end
$var wire 1 - vcc $end
$var wire 1 . unknown $end
$var tri1 1 / devclrn $end
$var tri1 1 0 devpor $end
$var tri1 1 1 devoe $end
$var wire 1 2 Y0~output_o $end
$var wire 1 3 Y1~output_o $end
$var wire 1 4 Y2~output_o $end
$var wire 1 5 Y3~output_o $end
$var wire 1 6 Y4~output_o $end
$var wire 1 7 Y5~output_o $end
$var wire 1 8 Y6~output_o $end
$var wire 1 9 Y7~output_o $end
$var wire 1 : X[2]~input_o $end
$var wire 1 ; E~input_o $end
$var wire 1 < X[1]~input_o $end
$var wire 1 = X[0]~input_o $end
$var wire 1 > inst|LPM_DECODE_component|auto_generated|w_anode78w [3] $end
$var wire 1 ? inst|LPM_DECODE_component|auto_generated|w_anode78w [2] $end
$var wire 1 @ inst|LPM_DECODE_component|auto_generated|w_anode78w [1] $end
$var wire 1 A inst|LPM_DECODE_component|auto_generated|w_anode78w [0] $end
$var wire 1 B inst|LPM_DECODE_component|auto_generated|w_anode68w [3] $end
$var wire 1 C inst|LPM_DECODE_component|auto_generated|w_anode68w [2] $end
$var wire 1 D inst|LPM_DECODE_component|auto_generated|w_anode68w [1] $end
$var wire 1 E inst|LPM_DECODE_component|auto_generated|w_anode68w [0] $end
$var wire 1 F inst|LPM_DECODE_component|auto_generated|w_anode58w [3] $end
$var wire 1 G inst|LPM_DECODE_component|auto_generated|w_anode58w [2] $end
$var wire 1 H inst|LPM_DECODE_component|auto_generated|w_anode58w [1] $end
$var wire 1 I inst|LPM_DECODE_component|auto_generated|w_anode58w [0] $end
$var wire 1 J inst|LPM_DECODE_component|auto_generated|w_anode48w [3] $end
$var wire 1 K inst|LPM_DECODE_component|auto_generated|w_anode48w [2] $end
$var wire 1 L inst|LPM_DECODE_component|auto_generated|w_anode48w [1] $end
$var wire 1 M inst|LPM_DECODE_component|auto_generated|w_anode48w [0] $end
$var wire 1 N inst|LPM_DECODE_component|auto_generated|w_anode38w [3] $end
$var wire 1 O inst|LPM_DECODE_component|auto_generated|w_anode38w [2] $end
$var wire 1 P inst|LPM_DECODE_component|auto_generated|w_anode38w [1] $end
$var wire 1 Q inst|LPM_DECODE_component|auto_generated|w_anode38w [0] $end
$var wire 1 R inst|LPM_DECODE_component|auto_generated|w_anode28w [3] $end
$var wire 1 S inst|LPM_DECODE_component|auto_generated|w_anode28w [2] $end
$var wire 1 T inst|LPM_DECODE_component|auto_generated|w_anode28w [1] $end
$var wire 1 U inst|LPM_DECODE_component|auto_generated|w_anode28w [0] $end
$var wire 1 V inst|LPM_DECODE_component|auto_generated|w_anode1w [3] $end
$var wire 1 W inst|LPM_DECODE_component|auto_generated|w_anode1w [2] $end
$var wire 1 X inst|LPM_DECODE_component|auto_generated|w_anode1w [1] $end
$var wire 1 Y inst|LPM_DECODE_component|auto_generated|w_anode1w [0] $end
$var wire 1 Z inst|LPM_DECODE_component|auto_generated|w_anode18w [3] $end
$var wire 1 [ inst|LPM_DECODE_component|auto_generated|w_anode18w [2] $end
$var wire 1 \ inst|LPM_DECODE_component|auto_generated|w_anode18w [1] $end
$var wire 1 ] inst|LPM_DECODE_component|auto_generated|w_anode18w [0] $end
$upscope $end
$upscope $end
$enddefinitions $end
#0
$dumpvars
0!
b0 "
0#
0$
0%
0&
0'
0(
0)
0*
x+
0,
1-
x.
1/
10
11
02
03
04
05
06
07
08
09
0:
0;
0<
0=
zA
z@
z?
0>
zE
zD
zC
0B
zI
zH
zG
0F
zM
zL
zK
0J
zQ
zP
zO
0N
zU
zT
zS
0R
zY
zX
zW
0V
z]
z\
z[
0Z
$end
#10000
b1 "
1=
0+
#20000
b11 "
b10 "
0=
1<
1+
#30000
b11 "
1=
0+
#40000
b111 "
b101 "
b100 "
0=
0<
1:
1+
#50000
b101 "
1=
0+
#60000
b111 "
b110 "
0=
1<
1+
#70000
b111 "
1=
0+
#80000
1!
b11 "
b1 "
b0 "
1;
0=
0<
0:
1+
1V
12
1#
#90000
b1 "
1=
0+
1Z
0V
13
02
1$
0#
#100000
b11 "
b10 "
0=
1<
1+
1R
0Z
14
03
1%
0$
#110000
b11 "
1=
0+
1N
0R
15
04
1&
0%
#120000
b111 "
b101 "
b100 "
0=
0<
1:
1+
1J
0N
16
05
1'
0&
#130000
b101 "
1=
0+
1F
0J
17
06
1(
0'
#140000
b111 "
b110 "
0=
1<
1+
1B
0F
18
07
1)
0(
#150000
b111 "
1=
0+
1>
0B
19
08
1*
0)
#160000
0!
b11 "
b1 "
b0 "
0;
0=
0<
0:
1+
0>
09
0*
#170000
b1 "
1=
0+
#180000
b11 "
b10 "
0=
1<
1+
#190000
b11 "
1=
0+
#200000
b111 "
b101 "
b100 "
0=
0<
1:
1+
#210000
b101 "
1=
0+
#220000
b111 "
b110 "
0=
1<
1+
#230000
b111 "
1=
0+
#240000
1!
b11 "
b1 "
b0 "
1;
0=
0<
0:
1+
1V
12
1#
#250000
b1 "
1=
0+
1Z
0V
13
02
1$
0#
#260000
b11 "
b10 "
0=
1<
1+
1R
0Z
14
03
1%
0$
#270000
b11 "
1=
0+
1N
0R
15
04
1&
0%
#280000
b111 "
b101 "
b100 "
0=
0<
1:
1+
1J
0N
16
05
1'
0&
#290000
b101 "
1=
0+
1F
0J
17
06
1(
0'
#300000
b111 "
b110 "
0=
1<
1+
1B
0F
18
07
1)
0(
#310000
b111 "
1=
0+
1>
0B
19
08
1*
0)
#320000
0!
b11 "
b1 "
b0 "
0;
0=
0<
0:
1+
0>
09
0*
#330000
b1 "
1=
0+
#340000
b11 "
b10 "
0=
1<
1+
#350000
b11 "
1=
0+
#360000
b111 "
b101 "
b100 "
0=
0<
1:
1+
#370000
b101 "
1=
0+
#380000
b111 "
b110 "
0=
1<
1+
#390000
b111 "
1=
0+
#400000
1!
b11 "
b1 "
b0 "
1;
0=
0<
0:
1+
1V
12
1#
#410000
b1 "
1=
0+
1Z
0V
13
02
1$
0#
#420000
b11 "
b10 "
0=
1<
1+
1R
0Z
14
03
1%
0$
#430000
b11 "
1=
0+
1N
0R
15
04
1&
0%
#440000
b111 "
b101 "
b100 "
0=
0<
1:
1+
1J
0N
16
05
1'
0&
#450000
b101 "
1=
0+
1F
0J
17
06
1(
0'
#460000
b111 "
b110 "
0=
1<
1+
1B
0F
18
07
1)
0(
#470000
b111 "
1=
0+
1>
0B
19
08
1*
0)
#480000
0!
b11 "
b1 "
b0 "
0;
0=
0<
0:
1+
0>
09
0*
#490000
b1 "
1=
0+
#500000
b11 "
b10 "
0=
1<
1+
#510000
b11 "
1=
0+
#520000
b111 "
b101 "
b100 "
0=
0<
1:
1+
#530000
b101 "
1=
0+
#540000
b111 "
b110 "
0=
1<
1+
#550000
b111 "
1=
0+
#560000
1!
b11 "
b1 "
b0 "
1;
0=
0<
0:
1+
1V
12
1#
#570000
b1 "
1=
0+
1Z
0V
13
02
1$
0#
#580000
b11 "
b10 "
0=
1<
1+
1R
0Z
14
03
1%
0$
#590000
b11 "
1=
0+
1N
0R
15
04
1&
0%
#600000
b111 "
b101 "
b100 "
0=
0<
1:
1+
1J
0N
16
05
1'
0&
#610000
b101 "
1=
0+
1F
0J
17
06
1(
0'
#620000
b111 "
b110 "
0=
1<
1+
1B
0F
18
07
1)
0(
#630000
b111 "
1=
0+
1>
0B
19
08
1*
0)
#640000
0!
b11 "
b1 "
b0 "
0;
0=
0<
0:
1+
0>
09
0*
#650000
b1 "
1=
0+
#660000
b11 "
b10 "
0=
1<
1+
#670000
b11 "
1=
0+
#680000
b111 "
b101 "
b100 "
0=
0<
1:
1+
#690000
b101 "
1=
0+
#700000
b111 "
b110 "
0=
1<
1+
#710000
b111 "
1=
0+
#720000
1!
b11 "
b1 "
b0 "
1;
0=
0<
0:
1+
1V
12
1#
#730000
b1 "
1=
0+
1Z
0V
13
02
1$
0#
#740000
b11 "
b10 "
0=
1<
1+
1R
0Z
14
03
1%
0$
#750000
b11 "
1=
0+
1N
0R
15
04
1&
0%
#760000
b111 "
b101 "
b100 "
0=
0<
1:
1+
1J
0N
16
05
1'
0&
#770000
b101 "
1=
0+
1F
0J
17
06
1(
0'
#780000
b111 "
b110 "
0=
1<
1+
1B
0F
18
07
1)
0(
#790000
b111 "
1=
0+
1>
0B
19
08
1*
0)
#800000
0!
b11 "
b1 "
b0 "
0;
0=
0<
0:
1+
0>
09
0*
#810000
b1 "
1=
0+
#820000
b11 "
b10 "
0=
1<
1+
#830000
b11 "
1=
0+
#840000
b111 "
b101 "
b100 "
0=
0<
1:
1+
#850000
b101 "
1=
0+
#860000
b111 "
b110 "
0=
1<
1+
#870000
b111 "
1=
0+
#880000
1!
b11 "
b1 "
b0 "
1;
0=
0<
0:
1+
1V
12
1#
#890000
b1 "
1=
0+
1Z
0V
13
02
1$
0#
#900000
b11 "
b10 "
0=
1<
1+
1R
0Z
14
03
1%
0$
#910000
b11 "
1=
0+
1N
0R
15
04
1&
0%
#920000
b111 "
b101 "
b100 "
0=
0<
1:
1+
1J
0N
16
05
1'
0&
#930000
b101 "
1=
0+
1F
0J
17
06
1(
0'
#940000
b111 "
b110 "
0=
1<
1+
1B
0F
18
07
1)
0(
#950000
b111 "
1=
0+
1>
0B
19
08
1*
0)
#960000
0!
b11 "
b1 "
b0 "
0;
0=
0<
0:
1+
0>
09
0*
#970000
b1 "
1=
0+
#980000
b11 "
b10 "
0=
1<
1+
#990000
b11 "
1=
0+
