pract7/simulation/qsim/pract7.msim.vcd
$comment
	File created using the following command:
		vcd file pract7.msim.vcd -direction
$end
$date
	Mon Oct 14 20:05:00 2024
$end
$version
	ModelSim Version 10.1d
$end
$timescale
	1ps
$end
$scope module pract7_vlg_vec_tst $end
$var reg 1 ! a $end
$var reg 1 " b $end
$var reg 1 # clock $end
$var wire 1 $ q0 $end
$var wire 1 % q1 $end
$var wire 1 & q2 $end
$var wire 1 ' q3 $end
$var wire 1 ( sampler $end
$scope module i1 $end
$var wire 1 ) gnd $end
$var wire 1 * vcc $end
$var wire 1 + unknown $end
$var tri1 1 , devclrn $end
$var tri1 1 - devpor $end
$var tri1 1 . devoe $end
$var wire 1 / q3~output_o $end
$var wire 1 0 q2~output_o $end
$var wire 1 1 q1~output_o $end
$var wire 1 2 q0~output_o $end
$var wire 1 3 clock~input_o $end
$var wire 1 4 clock~inputclkctrl_outclk $end
$var wire 1 5 a~input_o $end
$var wire 1 6 b~input_o $end
$var wire 1 7 newq2~0_combout $end
$var wire 1 8 newq2~1_combout $end
$var wire 1 9 state2~q $end
$var wire 1 : newq1~0_combout $end
$var wire 1 ; newq1~1_combout $end
$var wire 1 < state1~q $end
$var wire 1 = st3~0_combout $end
$var wire 1 > newq0~0_combout $end
$var wire 1 ? newq0~1_combout $end
$var wire 1 @ newq0~2_combout $end
$var wire 1 A newq0~3_combout $end
$var wire 1 B state0~q $end
$var wire 1 C newq3~1_combout $end
$var wire 1 D st12~0_combout $end
$var wire 1 E newq3~0_combout $end
$var wire 1 F newq3~2_combout $end
$var wire 1 G state3~q $end
$upscope $end
$upscope $end
$enddefinitions $end
#0
$dumpvars
0!
0"
0#
0$
0%
0&
0'
x(
0)
1*
x+
1,
1-
1.
0/
00
01
02
03
04
05
06
07
18
09
0:
1;
0<
1=
0>
0?
0@
0A
0B
0C
0D
1E
1F
0G
$end
#10000
1#
13
14
0(
1G
1<
19
0E
1C
1?
1>
0=
08
1:
1/
11
10
1'
1%
1&
1A
1@
0?
0;
0A
#20000
0#
03
04
1(
#30000
1#
13
14
0(
0<
09
0C
0>
1=
18
0@
1?
0:
01
00
0%
0&
0F
1A
1;
#40000
0#
03
04
1(
#50000
1#
13
14
0(
0G
1B
1<
19
1@
0?
0=
1:
1>
0/
12
11
10
0'
1$
1%
1&
0A
0;
#60000
0#
03
04
1(
#70000
1#
13
14
0(
0B
0<
1=
1;
08
0>
02
01
0$
0%
#80000
0#
03
04
1(
#90000
1#
13
14
0(
1<
09
0=
18
1E
0@
0:
11
00
1%
0&
1A
1F
0;
#100000
0#
03
04
1(
#110000
1#
13
14
0(
1G
1B
0<
19
0E
1C
1@
1;
17
1:
08
1/
12
01
10
1'
1$
0%
1&
0A
#120000
0#
03
04
1(
#130000
1#
13
14
0(
0B
1<
09
0@
1?
0;
0:
18
07
02
11
00
0$
1%
0&
1A
1;
#140000
0#
03
04
1(
#150000
1#
13
14
0(
1B
19
0C
1@
0?
0;
1:
17
1>
12
10
1$
1&
0F
0A
0@
1?
1A
#160000
0#
03
04
1(
#170000
1#
13
14
0(
0G
0<
1@
0?
07
0>
08
0/
01
0'
0%
0A
#180000
0#
03
04
1(
#190000
1#
13
14
0(
0B
09
0@
1=
1;
0:
18
1E
02
00
0$
0&
1F
#200000
1"
0#
16
03
04
1(
#210000
1#
13
14
0(
1G
1<
19
0E
1C
1?
1>
0=
08
1:
1/
11
10
1'
1%
1&
1A
1@
0?
0;
0A
#220000
0#
03
04
1(
#230000
1#
13
14
0(
0<
09
0C
0>
1=
18
0@
1?
0:
01
00
0%
0&
0F
1A
1;
#240000
0#
03
04
1(
#250000
1#
13
14
0(
0G
1B
1<
19
1@
0?
0=
1>
0/
12
11
10
0'
1$
1%
1&
0A
#260000
0#
03
04
1(
#270000
1#
13
14
0(
0B
0;
1:
08
02
0$
1;
#280000
0#
03
04
1(
#290000
1#
13
14
0(
09
1E
0@
0:
18
00
0&
1F
1A
0;
#300000
0#
03
04
1(
#310000
1#
13
14
0(
1G
1B
0<
19
0E
1C
1?
1;
08
0>
1/
12
01
10
1'
1$
0%
1&
1@
0?
0A
#320000
0#
03
04
1(
#330000
1#
13
14
0(
0B
1<
09
0@
1?
18
1>
02
11
00
0$
1%
0&
1A
#340000
0#
03
04
1(
#350000
1#
13
14
0(
1B
19
0C
0;
12
10
1$
1&
0F
#360000
0#
03
04
1(
#370000
1#
13
14
0(
0G
0<
1@
0?
0>
08
0/
01
0'
0%
0A
#380000
0#
03
04
1(
#390000
1#
13
14
0(
0B
09
0@
1=
1;
18
1E
02
00
0$
0&
1F
#400000
1!
0"
0#
15
06
03
04
1(
0E
1A
17
0F
08
#410000
1#
13
14
0(
1B
1<
1D
0=
18
07
12
11
1$
1%
1F
1E
08
#420000
0#
03
04
1(
#430000
1#
13
14
0(
1G
0E
1@
0;
17
1/
1'
0A
18
#440000
0#
03
04
1(
#450000
1#
13
14
0(
0B
0<
19
0D
1C
0@
1?
1=
1;
1:
08
07
02
01
10
0$
0%
1&
1A
0;
#460000
0#
03
04
1(
#470000
1#
13
14
0(
1B
09
0C
1@
0?
0=
1;
0:
17
12
00
1$
0&
0F
0A
#480000
0#
03
04
1(
#490000
1#
13
14
0(
0G
0B
1<
1E
0@
0;
18
0/
02
11
0'
0$
1%
1F
1A
#500000
0#
03
04
1(
#510000
1#
13
14
0(
1G
1B
0<
19
0E
1C
1@
1;
1:
08
1/
12
01
10
1'
1$
0%
1&
0A
#520000
0#
03
04
1(
#530000
1#
13
14
0(
0B
1<
09
0@
1?
0;
0:
18
07
02
11
00
0$
1%
0&
1A
1;
#540000
0#
03
04
1(
#550000
1#
13
14
0(
1B
19
0C
1@
0?
0;
1:
17
1>
12
10
1$
1&
0F
0A
0@
1?
1A
#560000
0#
03
04
1(
#570000
1#
13
14
0(
0G
0<
1@
0?
07
0>
08
0/
01
0'
0%
0A
#580000
0#
03
04
1(
#590000
1#
13
14
0(
0B
09
0@
1=
1;
0:
18
17
1E
02
00
0$
0&
1A
0E
08
1F
0F
#600000
1"
0#
16
03
04
1(
#610000
1#
13
14
0(
1B
1<
0=
18
07
1>
12
11
1$
1%
1E
08
1?
1F
#620000
0#
03
04
1(
#630000
1#
13
14
0(
1G
0E
0;
1/
1'
0F
#640000
0#
03
04
1(
#650000
1#
13
14
0(
0G
0<
1E
0>
0/
01
0'
0%
1F
0?
#660000
0#
03
04
1(
#670000
1#
13
14
0(
1G
0E
1@
1;
1/
1'
0F
0A
#680000
0#
03
04
1(
#690000
1#
13
14
0(
0G
0B
1<
1E
0@
0;
17
18
1>
0/
02
11
0'
0$
1%
1F
1A
#700000
0#
03
04
1(
#710000
1#
13
14
0(
1G
1B
0<
19
0E
1C
1?
1;
07
08
0>
1/
12
01
10
1'
1$
0%
1&
1@
0?
0A
#720000
0#
03
04
1(
#730000
1#
13
14
0(
0B
1<
09
0@
1?
18
1>
02
11
00
0$
1%
0&
1A
#740000
0#
03
04
1(
#750000
1#
13
14
0(
1B
19
0C
0;
12
10
1$
1&
0F
#760000
0#
03
04
1(
#770000
1#
13
14
0(
0G
0<
1@
0?
0>
08
0/
01
0'
0%
0A
#780000
0#
03
04
1(
#790000
1#
13
14
0(
0B
09
0@
1=
1;
18
17
1E
02
00
0$
0&
1A
0E
08
1F
0F
#800000
0!
0"
0#
05
06
03
04
1(
1E
0A
07
1F
18
#810000
1#
13
14
0(
1G
1<
19
0E
1C
1?
1>
0=
08
1:
1/
11
10
1'
1%
1&
1A
1@
0?
0;
0A
#820000
0#
03
04
1(
#830000
1#
13
14
0(
0<
09
0C
0>
1=
18
0@
1?
0:
01
00
0%
0&
0F
1A
1;
#840000
0#
03
04
1(
#850000
1#
13
14
0(
0G
1B
1<
19
1@
0?
0=
1:
1>
0/
12
11
10
0'
1$
1%
1&
0A
0;
#860000
0#
03
04
1(
#870000
1#
13
14
0(
0B
0<
1=
1;
08
0>
02
01
0$
0%
#880000
0#
03
04
1(
#890000
1#
13
14
0(
1<
09
0=
18
1E
0@
0:
11
00
1%
0&
1A
1F
0;
#900000
0#
03
04
1(
#910000
1#
13
14
0(
1G
1B
0<
19
0E
1C
1@
1;
17
1:
08
1/
12
01
10
1'
1$
0%
1&
0A
#920000
0#
03
04
1(
#930000
1#
13
14
0(
0B
1<
09
0@
1?
0;
0:
18
07
02
11
00
0$
1%
0&
1A
1;
#940000
0#
03
04
1(
#950000
1#
13
14
0(
1B
19
0C
1@
0?
0;
1:
17
1>
12
10
1$
1&
0F
0A
0@
1?
1A
#960000
0#
03
04
1(
#970000
1#
13
14
0(
0G
0<
1@
0?
07
0>
08
0/
01
0'
0%
0A
#980000
0#
03
04
1(
#990000
1#
13
14
0(
0B
09
0@
1=
1;
0:
18
1E
02
00
0$
0&
1F
