pract3/simulation/qsim/pract3.msim.vcd
$comment
	File created using the following command:
		vcd file pract3.msim.vcd -direction
$end
$date
	Mon Oct 14 19:45:44 2024
$end
$version
	ModelSim Version 10.1d
$end
$timescale
	1ps
$end
$scope module pract3_vlg_vec_tst $end
$var reg 1 ! E $end
$var reg 1 " X0 $end
$var reg 1 # X1 $end
$var reg 1 $ X2 $end
$var wire 1 % Y0 $end
$var wire 1 & Y1 $end
$var wire 1 ' Y2 $end
$var wire 1 ( Y3 $end
$var wire 1 ) Y4 $end
$var wire 1 * Y5 $end
$var wire 1 + Y6 $end
$var wire 1 , Y7 $end
$var wire 1 - sampler $end
$scope module i1 $end
$var wire 1 . gnd $end
$var wire 1 / vcc $end
$var wire 1 0 unknown $end
$var tri1 1 1 devclrn $end
$var tri1 1 2 devpor $end
$var tri1 1 3 devoe $end
$var wire 1 4 Y0~output_o $end
$var wire 1 5 Y1~output_o $end
$var wire 1 6 Y2~output_o $end
$var wire 1 7 Y3~output_o $end
$var wire 1 8 Y4~output_o $end
$var wire 1 9 Y5~output_o $end
$var wire 1 : Y6~output_o $end
$var wire 1 ; Y7~output_o $end
$var wire 1 < E~input_o $end
$var wire 1 = X0~input_o $end
$var wire 1 > X1~input_o $end
$var wire 1 ? X2~input_o $end
$var wire 1 @ inst~combout $end
$var wire 1 A inst4~combout $end
$var wire 1 B inst5~combout $end
$var wire 1 C inst8~combout $end
$var wire 1 D inst9~combout $end
$var wire 1 E inst7~combout $end
$var wire 1 F inst10~combout $end
$var wire 1 G inst12~combout $end
$upscope $end
$upscope $end
$enddefinitions $end
#0
$dumpvars
0!
0"
0#
0$
1%
0&
0'
0(
0)
0*
0+
0,
x-
0.
1/
x0
11
12
13
14
05
06
07
08
09
0:
0;
0<
0=
0>
0?
1@
0A
0B
0C
0D
0E
0F
0G
$end
#10000
1"
1=
0-
1A
0@
15
04
1&
0%
#20000
1#
0"
1>
0=
1-
1B
0A
16
05
1'
0&
#30000
1"
1=
0-
1C
0B
17
06
1(
0'
#40000
1$
0#
0"
1?
0>
0=
1-
1D
0C
18
07
1)
0(
#50000
1"
1=
0-
1E
0D
19
08
1*
0)
#60000
1#
0"
1>
0=
1-
1F
0E
1:
09
1+
0*
#70000
1"
1=
0-
1G
0F
1;
0:
1,
0+
#80000
1!
0$
0#
0"
1<
0?
0>
0=
1-
0G
0;
0,
#90000
1"
1=
0-
#100000
1#
0"
1>
0=
1-
#110000
1"
1=
0-
#120000
1$
0#
0"
1?
0>
0=
1-
#130000
1"
1=
0-
#140000
1#
0"
1>
0=
1-
#150000
1"
1=
0-
#160000
0!
0$
0#
0"
0<
0?
0>
0=
1-
1@
14
1%
#170000
1"
1=
0-
1A
0@
15
04
1&
0%
#180000
1#
0"
1>
0=
1-
1B
0A
16
05
1'
0&
#190000
1"
1=
0-
1C
0B
17
06
1(
0'
#200000
1$
0#
0"
1?
0>
0=
1-
1D
0C
18
07
1)
0(
#210000
1"
1=
0-
1E
0D
19
08
1*
0)
#220000
1#
0"
1>
0=
1-
1F
0E
1:
09
1+
0*
#230000
1"
1=
0-
1G
0F
1;
0:
1,
0+
#240000
1!
0$
0#
0"
1<
0?
0>
0=
1-
0G
0;
0,
#250000
1"
1=
0-
#260000
1#
0"
1>
0=
1-
#270000
1"
1=
0-
#280000
1$
0#
0"
1?
0>
0=
1-
#290000
1"
1=
0-
#300000
1#
0"
1>
0=
1-
#310000
1"
1=
0-
#320000
0!
0$
0#
0"
0<
0?
0>
0=
1-
1@
14
1%
#330000
1"
1=
0-
1A
0@
15
04
1&
0%
#340000
1#
0"
1>
0=
1-
1B
0A
16
05
1'
0&
#350000
1"
1=
0-
1C
0B
17
06
1(
0'
#360000
1$
0#
0"
1?
0>
0=
1-
1D
0C
18
07
1)
0(
#370000
1"
1=
0-
1E
0D
19
08
1*
0)
#380000
1#
0"
1>
0=
1-
1F
0E
1:
09
1+
0*
#390000
1"
1=
0-
1G
0F
1;
0:
1,
0+
#400000
1!
0$
0#
0"
1<
0?
0>
0=
1-
0G
0;
0,
#410000
1"
1=
0-
#420000
1#
0"
1>
0=
1-
#430000
1"
1=
0-
#440000
1$
0#
0"
1?
0>
0=
1-
#450000
1"
1=
0-
#460000
1#
0"
1>
0=
1-
#470000
1"
1=
0-
#480000
0!
0$
0#
0"
0<
0?
0>
0=
1-
1@
14
1%
#490000
1"
1=
0-
1A
0@
15
04
1&
0%
#500000
1#
0"
1>
0=
1-
1B
0A
16
05
1'
0&
#510000
1"
1=
0-
1C
0B
17
06
1(
0'
#520000
1$
0#
0"
1?
0>
0=
1-
1D
0C
18
07
1)
0(
#530000
1"
1=
0-
1E
0D
19
08
1*
0)
#540000
1#
0"
1>
0=
1-
1F
0E
1:
09
1+
0*
#550000
1"
1=
0-
1G
0F
1;
0:
1,
0+
#560000
1!
0$
0#
0"
1<
0?
0>
0=
1-
0G
0;
0,
#570000
1"
1=
0-
#580000
1#
0"
1>
0=
1-
#590000
1"
1=
0-
#600000
1$
0#
0"
1?
0>
0=
1-
#610000
1"
1=
0-
#620000
1#
0"
1>
0=
1-
#630000
1"
1=
0-
#640000
0!
0$
0#
0"
0<
0?
0>
0=
1-
1@
14
1%
#650000
1"
1=
0-
1A
0@
15
04
1&
0%
#660000
1#
0"
1>
0=
1-
1B
0A
16
05
1'
0&
#670000
1"
1=
0-
1C
0B
17
06
1(
0'
#680000
1$
0#
0"
1?
0>
0=
1-
1D
0C
18
07
1)
0(
#690000
1"
1=
0-
1E
0D
19
08
1*
0)
#700000
1#
0"
1>
0=
1-
1F
0E
1:
09
1+
0*
#710000
1"
1=
0-
1G
0F
1;
0:
1,
0+
#720000
1!
0$
0#
0"
1<
0?
0>
0=
1-
0G
0;
0,
#730000
1"
1=
0-
#740000
1#
0"
1>
0=
1-
#750000
1"
1=
0-
#760000
1$
0#
0"
1?
0>
0=
1-
#770000
1"
1=
0-
#780000
1#
0"
1>
0=
1-
#790000
1"
1=
0-
#800000
0!
0$
0#
0"
0<
0?
0>
0=
1-
1@
14
1%
#810000
1"
1=
0-
1A
0@
15
04
1&
0%
#820000
1#
0"
1>
0=
1-
1B
0A
16
05
1'
0&
#830000
1"
1=
0-
1C
0B
17
06
1(
0'
#840000
1$
0#
0"
1?
0>
0=
1-
1D
0C
18
07
1)
0(
#850000
1"
1=
0-
1E
0D
19
08
1*
0)
#860000
1#
0"
1>
0=
1-
1F
0E
1:
09
1+
0*
#870000
1"
1=
0-
1G
0F
1;
0:
1,
0+
#880000
1!
0$
0#
0"
1<
0?
0>
0=
1-
0G
0;
0,
#890000
1"
1=
0-
#900000
1#
0"
1>
0=
1-
#910000
1"
1=
0-
#920000
1$
0#
0"
1?
0>
0=
1-
#930000
1"
1=
0-
#940000
1#
0"
1>
0=
1-
#950000
1"
1=
0-
#960000
0!
0$
0#
0"
0<
0?
0>
0=
1-
1@
14
1%
#970000
1"
1=
0-
1A
0@
15
04
1&
0%
#980000
1#
0"
1>
0=
1-
1B
0A
16
05
1'
0&
#990000
1"
1=
0-
1C
0B
17
06
1(
0'
